/home/ec2016/ra176522/Documents/dac/sistema-compras-dac/src/main/java/io/dac/data/entities/User.java
/home/ec2016/ra176522/Documents/dac/sistema-compras-dac/src/main/java/io/dac/web/services/OrderService.java
/home/ec2016/ra176522/Documents/dac/sistema-compras-dac/src/main/java/io/dac/data/entities/Employee.java
/home/ec2016/ra176522/Documents/dac/sistema-compras-dac/src/main/java/io/dac/web/controllers/UserController.java
/home/ec2016/ra176522/Documents/dac/sistema-compras-dac/src/main/java/io/dac/data/repositories/OrderRepository.java
/home/ec2016/ra176522/Documents/dac/sistema-compras-dac/src/main/java/io/dac/data/repositories/UserRepository.java
/home/ec2016/ra176522/Documents/dac/sistema-compras-dac/src/main/java/io/dac/web/errors/UserExistsException.java
/home/ec2016/ra176522/Documents/dac/sistema-compras-dac/src/main/java/io/dac/web/errors/UserNotFoundException.java
/home/ec2016/ra176522/Documents/dac/sistema-compras-dac/src/main/java/io/dac/web/services/UserService.java
/home/ec2016/ra176522/Documents/dac/sistema-compras-dac/src/main/java/io/dac/web/dtos/UserDto.java
/home/ec2016/ra176522/Documents/dac/sistema-compras-dac/src/main/java/io/dac/data/entities/OrderAdmin.java
/home/ec2016/ra176522/Documents/dac/sistema-compras-dac/src/main/java/io/dac/data/repositories/DepartmentRepository.java
/home/ec2016/ra176522/Documents/dac/sistema-compras-dac/src/main/java/io/dac/data/entities/Order.java
/home/ec2016/ra176522/Documents/dac/sistema-compras-dac/src/main/java/io/dac/data/DataLoader.java
/home/ec2016/ra176522/Documents/dac/sistema-compras-dac/src/main/java/io/dac/web/errors/OrderExistsException.java
/home/ec2016/ra176522/Documents/dac/sistema-compras-dac/src/main/java/io/dac/web/errors/OrderNotFoundException.java
/home/ec2016/ra176522/Documents/dac/sistema-compras-dac/src/main/java/io/dac/data/entities/Supervisor.java
/home/ec2016/ra176522/Documents/dac/sistema-compras-dac/src/main/java/io/dac/SistemaComprasDacApplication.java
/home/ec2016/ra176522/Documents/dac/sistema-compras-dac/src/main/java/io/dac/data/entities/Department.java
/home/ec2016/ra176522/Documents/dac/sistema-compras-dac/src/main/java/io/dac/spring/LocalDateTimeConverter.java
